\relax 
\providecommand\hyper@newdestlabel[2]{}
\catcode `"\active 
\catcode `<\active 
\catcode `>\active 
\@nameuse{es@quoting}
\AC@reset@newl@bel
\providecommand\HyperFirstAtBeginDocument{\AtBeginDocument}
\HyperFirstAtBeginDocument{\ifx\hyper@anchor\@undefined
\global\let\oldcontentsline\contentsline
\gdef\contentsline#1#2#3#4{\oldcontentsline{#1}{#2}{#3}}
\global\let\oldnewlabel\newlabel
\gdef\newlabel#1#2{\newlabelxx{#1}#2}
\gdef\newlabelxx#1#2#3#4#5#6{\oldnewlabel{#1}{{#2}{#3}}}
\AtEndDocument{\ifx\hyper@anchor\@undefined
\let\contentsline\oldcontentsline
\let\newlabel\oldnewlabel
\fi}
\fi}
\global\let\hyper@last\relax 
\gdef\HyperFirstAtBeginDocument#1{#1}
\providecommand\HyField@AuxAddToFields[1]{}
\providecommand\HyField@AuxAddToCoFields[2]{}
\bibstyle{es-alpha}
\select@language{spanish}
\@writefile{toc}{\select@language{spanish}}
\@writefile{lof}{\select@language{spanish}}
\@writefile{lot}{\select@language{spanish}}
\@writefile{toc}{\contentsline {chapter}{Resumen}{\es@scroman  {v}}{chapter*.1}}
\@writefile{lof}{\addvspace {10\p@ }}
\@writefile{lot}{\addvspace {10\p@ }}
\AC@undonewlabel{acro:PC}
\newlabel{acro:PC}{{}{\es@scroman  {v}}{Resumen}{section*.2}{}}
\acronymused{PC}
\AC@undonewlabel{acro:IaaS}
\newlabel{acro:IaaS}{{}{\es@scroman  {v}}{Resumen}{section*.3}{}}
\acronymused{IaaS}
\acronymused{IaaS}
\acronymused{IaaS}
\@writefile{toc}{\contentsline {chapter}{Abstract}{\es@scroman  {vi}}{chapter*.4}}
\@writefile{lof}{\addvspace {10\p@ }}
\@writefile{lot}{\addvspace {10\p@ }}
\acronymused{IaaS}
\acronymused{IaaS}
\@writefile{toc}{\contentsline {chapter}{\'{I}ndice general}{\es@scroman  {vii}}{chapter*.5}}
\citation{pushvspull}
\@writefile{toc}{\contentsline {chapter}{\'{I}ndice de cuadros}{\es@scroman  {xi}}{chapter*.6}}
\citation{cloud9}
\citation{santana2013data}
\citation{cloudstackconcepts}
\citation{deployingopenstack}
\citation{monwiki}
\citation{monagent}
\@writefile{toc}{\contentsline {chapter}{\'{I}ndice de figuras}{\es@scroman  {xii}}{chapter*.7}}
\acronymused{CPU}
\acronymused{CPU}
\@writefile{toc}{\contentsline {chapter}{\IeC {\'I}ndice de listados}{\es@scroman  {xiv}}{chapter*.8}}
\@writefile{toc}{\contentsline {chapter}{Listado de acr\IeC {\'o}nimos}{\es@scroman  {xv}}{chapter*.9}}
\@writefile{lof}{\addvspace {10\p@ }}
\@writefile{lot}{\addvspace {10\p@ }}
\newacro{GNU}[\AC@hyperlink{GNU}{GNU}]{\acs {GNU} is Not Unix}
\newacro{SLA}[\AC@hyperlink{SLA}{SLA}]{Service Level Agreement}
\newacro{HTTP}[\AC@hyperlink{HTTP}{HTTP}]{Hyper Text Transfer Protocol}
\newacro{NRPE}[\AC@hyperlink{NRPE}{NRPE}]{Nagios Remote Plugin Executor}
\newacro{IaaS}[\AC@hyperlink{IaaS}{IaaS}]{Infraestructure as a service, Infraestructura como servicio}
\newacro{PaaS}[\AC@hyperlink{PaaS}{PaaS}]{Platform as a Service, Plataforma como servicio}
\newacro{SaaS}[\AC@hyperlink{SaaS}{SaaS}]{Software as a Service, Software como servicio}
\newacro{MaaS}[\AC@hyperlink{MaaS}{MaaS}]{Monitoring as a Service \IeC {\'o} Monitorizaci\IeC {\'o}n como servicio}
\newacro{API}[\AC@hyperlink{API}{API}]{Application Programming Interface}
\newacro{TIC}[\AC@hyperlink{TIC}{TIC}]{Tecnolog\IeC {\'\i }as de la Informaci\IeC {\'o}n y las Comunicaciones}
\newacro{KPI}[\AC@hyperlink{KPI}{KPI}]{Key Performance Indicator}
\newacro{IEFT}[\AC@hyperlink{IEFT}{IEFT}]{Internet Engineering Task Force}
\newacro{IP}[\AC@hyperlink{IP}{IP}]{Internet Protocol}
\newacro{HW}[\AC@hyperlink{HW}{HW}]{Hardware}
\newacro{SW}[\AC@hyperlink{SW}{SW}]{Software}
\newacro{UI}[\AC@hyperlink{UI}{UI}]{User Interface}
\newacro{CPU}[\AC@hyperlink{CPU}{CPU}]{Central Processing Unit}
\newacro{RAM}[\AC@hyperlink{RAM}{RAM}]{Random Access Memory}
\newacro{GB}[\AC@hyperlink{GB}{GB}]{Gigabyte}
\newacro{HD}[\AC@hyperlink{HD}{HD}]{Hard Drive}
\newacro{ISO}[\AC@hyperlink{ISO}{ISO}]{Internacional Organization for Standardization}
\newacro{ASF}[\AC@hyperlink{ASF}{ASF}]{Apache Software Foundation}
\newacro{PC}[\AC@hyperlink{PC}{PC}]{Personal Computer}
\newacro{URL}[\AC@hyperlink{URL}{URL}]{Universal Resource Locator}
\newacro{RSA}[\AC@hyperlink{RSA}{RSA}]{Rivest, Shamir y Adleman}
\newacro{CIDR}[\AC@hyperlink{CIDR}{CIDR}]{Classles Inter-Domain Routing}
\newacro{LTS}[\AC@hyperlink{LTS}{LTS}]{Long Time Support}
\newacro{REST}[\AC@hyperlink{REST}{REST}]{REpresentational State Transfer}
\newacro{QEMU}[\AC@hyperlink{QEMU}{QEMU}]{Quick EMUlator}
\newacro{QCOW}[\AC@hyperlink{QCOW}{QCOW}]{QEMU Copy On Write}
\newacro{SSH}[\AC@hyperlink{SSH}{SSH}]{Secure Shell}
\newacro{HOT}[\AC@hyperlink{HOT}{HOT}]{Heat Orchestration Template}
\newacro{AWS}[\AC@hyperlink{AWS}{AWS}]{Amazon Web Services}
\newacro{KVM}[\AC@hyperlink{KVM}{KVM}]{Kernel-based Virtual Machine}
\newacro{NASA}[\AC@hyperlink{NASA}{NASA}]{National Aeronautics and Space Administration}
\newacro{NIST}[\AC@hyperlink{NIST}{NIST}]{National Institute of Standards and Technology}
\newacro{MIT}[\AC@hyperlink{MIT}{MIT}]{Massachusetts Institute of Technology}
\newacro{CFN}[\AC@hyperlink{CFN}{CFN}]{Cloud Formation Notation}
\newacro{TCP}[\AC@hyperlink{TCP}{TCP}]{Transfer Control Protocol}
\newacro{JSON}[\AC@hyperlink{JSON}{JSON}]{Java Script Object Notation}
\newacro{YAML}[\AC@hyperlink{YAML}{YAML}]{Yet Another Markup Lenguage}
\newacro{LXC}[\AC@hyperlink{LXC}{LXC}]{LinuX Containers}
\newacro{EC2}[\AC@hyperlink{EC2}{EC2}]{Elastic Compute Cloud}
\@writefile{toc}{\contentsline {chapter}{Agradecimientos}{\es@scroman  {xvii}}{chapter*.10}}
\@writefile{lof}{\addvspace {10\p@ }}
\@writefile{lot}{\addvspace {10\p@ }}
\citation{cloud9}
\citation{jmcc}
\@writefile{toc}{\contentsline {chapter}{\numberline {1}Introducci\IeC {\'o}n}{1}{chapter.1}}
\@writefile{lof}{\addvspace {10\p@ }}
\@writefile{lot}{\addvspace {10\p@ }}
\@writefile{lof}{\contentsline {figure}{\numberline {1.1}{\ignorespaces Diagrama de Red \cite  {cloud9}}}{1}{figure.1.1}}
\newlabel{fig:cloud_network_diagram}{{1.1}{1}{Diagrama de Red \cite {cloud9}}{figure.1.1}{}}
\acronymused{SaaS}
\acronymused{PaaS}
\acronymused{IaaS}
\AC@undonewlabel{acro:KPI}
\newlabel{acro:KPI}{{1}{2}{Introducción}{section*.11}{}}
\acronymused{KPI}
\acronymused{IaaS}
\acronymused{IaaS}
\@writefile{toc}{\contentsline {section}{\numberline {1.1}Estructura del documento}{2}{section.1.1}}
\acronymused{IaaS}
\acronymused{URL}
\citation{furht2010handbook}
\citation{wcloud}
\@writefile{toc}{\contentsline {chapter}{\numberline {2}Antecedentes}{4}{chapter.2}}
\@writefile{lof}{\addvspace {10\p@ }}
\@writefile{lot}{\addvspace {10\p@ }}
\newlabel{chap:antecedentes}{{2}{4}{Antecedentes}{chapter.2}{}}
\AC@undonewlabel{acro:TIC}
\newlabel{acro:TIC}{{2}{4}{Antecedentes}{section*.12}{}}
\acronymused{TIC}
\@writefile{toc}{\contentsline {section}{\numberline {2.1}Cloud Computing}{4}{section.2.1}}
\@writefile{toc}{\contentsline {subsection}{\numberline {2.1.1}Caracter\IeC {\'\i }sticas}{4}{subsection.2.1.1}}
\citation{ucc}
\@writefile{toc}{\contentsline {subsection}{\numberline {2.1.2}Modelos de servicio}{5}{subsection.2.1.2}}
\AC@undonewlabel{acro:IEFT}
\newlabel{acro:IEFT}{{2.1.2}{5}{Modelos de servicio}{section*.13}{}}
\acronymused{IEFT}
\AC@undonewlabel{acro:SaaS}
\newlabel{acro:SaaS}{{2.1.2}{5}{Modelos de servicio}{section*.14}{}}
\acronymused{SaaS}
\AC@undonewlabel{acro:PaaS}
\newlabel{acro:PaaS}{{2.1.2}{5}{Modelos de servicio}{section*.15}{}}
\acronymused{PaaS}
\citation{wcloud}
\acronymused{PaaS}
\acronymused{IaaS}
\acronymused{IP}
\acronymused{IaaS}
\acronymused{IaaS}
\AC@undonewlabel{acro:AWS}
\newlabel{acro:AWS}{{2.1.2}{6}{Modelos de servicio}{section*.16}{}}
\acronymused{AWS}
\acronymused{IaaS}
\@writefile{toc}{\contentsline {subsection}{\numberline {2.1.3}Modelos de despliegue}{6}{subsection.2.1.3}}
\acronymused{IaaS}
\citation{santana2013data}
\citation{santana2013data}
\@writefile{toc}{\contentsline {subsection}{\numberline {2.1.4}Etapas en la adopci\IeC {\'o}n del modelo Cloud Computing}{7}{subsection.2.1.4}}
\newlabel{sub:tran}{{2.1.4}{7}{Etapas en la adopción del modelo Cloud Computing}{subsection.2.1.4}{}}
\acronymused{TIC}
\acronymused{TIC}
\AC@undonewlabel{acro:ISO}
\newlabel{acro:ISO}{{2.1.4}{7}{Etapas en la adopción del modelo Cloud Computing}{section*.17}{}}
\acronymused{ISO}
\AC@undonewlabel{acro:NIST}
\newlabel{acro:NIST}{{2.1.4}{7}{Etapas en la adopción del modelo Cloud Computing}{section*.18}{}}
\acronymused{NIST}
\acronymused{API}
\acronymused{TIC}
\citation{cloudstack}
\citation{cloudstackconcepts}
\citation{cloudstackconcepts}
\@writefile{lof}{\contentsline {figure}{\numberline {2.1}{\ignorespaces Etapas en la implantaci\IeC {\'o}n de cloud computing \cite  {santana2013data}}}{8}{figure.2.1}}
\newlabel{fig:stages}{{2.1}{8}{Etapas en la implantación de cloud computing \cite {santana2013data}}{figure.2.1}{}}
\@writefile{toc}{\contentsline {subsection}{\numberline {2.1.5}CloudStack}{8}{subsection.2.1.5}}
\acronymused{IaaS}
\AC@undonewlabel{acro:ASF}
\newlabel{acro:ASF}{{2.1.5}{8}{CloudStack}{section*.19}{}}
\acronymused{ASF}
\acronymused{KVM}
\acronymused{LXC}
\acronymused{API}
\acronymused{API}
\acronymused{REST}
\acronymused{AWS}
\acronymused{EC2}
\citation{cloudstackconcepts}
\citation{openstack}
\acronymused{API}
\acronymused{IP}
\acronymused{ISO}
\@writefile{lof}{\contentsline {figure}{\numberline {2.2}{\ignorespaces Arquitectura de Cloud Stack \cite  {cloudstackconcepts}}}{9}{figure.2.2}}
\newlabel{fig:cloudstack_architecture}{{2.2}{9}{Arquitectura de Cloud Stack \cite {cloudstackconcepts}}{figure.2.2}{}}
\@writefile{toc}{\contentsline {subsection}{\numberline {2.1.6}Open Stack}{9}{subsection.2.1.6}}
\acronymused{IaaS}
\citation{deployingopenstack}
\citation{deployingopenstack}
\acronymused{NASA}
\acronymused{API}
\citation{ha}
\@writefile{lof}{\contentsline {figure}{\numberline {2.3}{\ignorespaces Open Stack \cite  {deployingopenstack}}}{11}{figure.2.3}}
\newlabel{fig:open_stack}{{2.3}{11}{Open Stack \cite {deployingopenstack}}{figure.2.3}{}}
\@writefile{toc}{\contentsline {section}{\numberline {2.2}Disponibilidad de servicios}{11}{section.2.2}}
\citation{turnbull2014art}
\citation{turnbull2014art}
\AC@undonewlabel{acro:SLA}
\newlabel{acro:SLA}{{2.2}{12}{Disponibilidad de servicios}{section*.20}{}}
\acronymused{SLA}
\@writefile{toc}{\contentsline {section}{\numberline {2.3}Monitorizaci\IeC {\'o}n de sistemas}{12}{section.2.3}}
\acronymused{TIC}
\@writefile{toc}{\contentsline {subsection}{\numberline {2.3.1}Definiciones}{12}{subsection.2.3.1}}
\@writefile{lof}{\contentsline {figure}{\numberline {2.4}{\ignorespaces Gr\IeC {\'a}fica de una M\IeC {\'e}trica}}{13}{figure.2.4}}
\newlabel{fig:metric_plot}{{2.4}{13}{Gráfica de una Métrica}{figure.2.4}{}}
\acronymused{CPU}
\@writefile{lof}{\contentsline {figure}{\numberline {2.5}{\ignorespaces Ejemplo de calibraci\IeC {\'o}n: uso de \acs {CPU}}}{13}{figure.2.5}}
\acronymused{CPU}
\newlabel{fig:cpu_load}{{2.5}{13}{Ejemplo de calibración: uso de \acs {CPU}}{figure.2.5}{}}
\@writefile{lof}{\contentsline {figure}{\numberline {2.6}{\ignorespaces Ejemplo de contador: uptime de sistema}}{13}{figure.2.6}}
\newlabel{fig:system_uptime}{{2.6}{13}{Ejemplo de contador: uptime de sistema}{figure.2.6}{}}
\@writefile{lof}{\contentsline {figure}{\numberline {2.7}{\ignorespaces Ejemplo de temporizador: tiempo de ping}}{14}{figure.2.7}}
\newlabel{fig:ping_time}{{2.7}{14}{Ejemplo de temporizador: tiempo de ping}{figure.2.7}{}}
\@writefile{lot}{\contentsline {table}{\numberline {2.1}{\ignorespaces Ejemplo de definici\IeC {\'o}n de umbrales sobre una m\IeC {\'e}trica}}{14}{table.2.1}}
\newlabel{tab:threshold}{{2.1}{14}{Ejemplo de definición de umbrales sobre una métrica}{table.2.1}{}}
\citation{turnbull2014art}
\citation{pushvspull}
\@writefile{toc}{\contentsline {subsection}{\numberline {2.3.2}Clasificaci\IeC {\'o}n de los sistemas de monitorizaci\IeC {\'o}n}{15}{subsection.2.3.2}}
\newlabel{sec:clasifmon}{{2.3.2}{15}{Clasificación de los sistemas de monitorización}{subsection.2.3.2}{}}
\@writefile{lof}{\contentsline {figure}{\numberline {2.8}{\ignorespaces Monitorizaci\IeC {\'o}n \IeC {\guillemotleft }Push\IeC {\guillemotright } vs. \IeC {\guillemotleft }Pull\IeC {\guillemotright }}}{15}{figure.2.8}}
\newlabel{fig:push_vs_pull}{{2.8}{15}{Monitorización «Push» vs. «Pull»}{figure.2.8}{}}
\@writefile{lot}{\contentsline {table}{\numberline {2.2}{\ignorespaces Comparativa de sistemas de monitorizaci\IeC {\'o}n \IeC {\guillemotleft }Push\IeC {\guillemotright } frente a \IeC {\guillemotleft }Pull\IeC {\guillemotright } \cite  {pushvspull}}}{16}{table.2.2}}
\newlabel{tab:pruebait1}{{2.2}{16}{Comparativa de sistemas de monitorización «Push» frente a «Pull» \cite {pushvspull}}{table.2.2}{}}
\citation{aceto2012}
\citation{nagios}
\@writefile{toc}{\contentsline {section}{\numberline {2.4}Monitorizaci\IeC {\'o}n en entornos Cloud}{17}{section.2.4}}
\@writefile{toc}{\contentsline {section}{\numberline {2.5}An\IeC {\'a}lisis de algunas herramientas de monitorizaci\IeC {\'o}n no comerciales}{17}{section.2.5}}
\@writefile{toc}{\contentsline {subsection}{\numberline {2.5.1}Nagios}{17}{subsection.2.5.1}}
\@writefile{lof}{\contentsline {figure}{\numberline {2.9}{\ignorespaces Arquitectura de Nagios}}{19}{figure.2.9}}
\newlabel{fig:nagios_architecture}{{2.9}{19}{Arquitectura de Nagios}{figure.2.9}{}}
\AC@undonewlabel{acro:NRPE}
\newlabel{acro:NRPE}{{2.5.1}{19}{Nagios}{section*.21}{}}
\acronymused{NRPE}
\acronymused{API}
\citation{sensu}
\@writefile{toc}{\contentsline {subsection}{\numberline {2.5.2}Sensu}{20}{subsection.2.5.2}}
\acronymused{MIT}
\acronymused{KPI}
\@writefile{lof}{\contentsline {figure}{\numberline {2.10}{\ignorespaces Arquitectura de Sensu}}{20}{figure.2.10}}
\newlabel{fig:sensu_architecture}{{2.10}{20}{Arquitectura de Sensu}{figure.2.10}{}}
\citation{rabbitmq}
\acronymused{API}
\acronymused{HTTP}
\citation{flapjack}
\citation{graphite}
\citation{monwiki}
\citation{storm}
\@writefile{toc}{\contentsline {section}{\numberline {2.6}Monasca}{22}{section.2.6}}
\AC@undonewlabel{acro:MaaS}
\newlabel{acro:MaaS}{{2.6}{22}{Monasca}{section*.22}{}}
\acronymused{MaaS}
\acronymused{IaaS}
\acronymused{API}
\acronymused{HTTP}
\citation{kafka}
\citation{influxdb}
\citation{vertica}
\citation{monwiki}
\acronymused{API}
\acronymused{API}
\acronymused{HTTP}
\acronymused{API}
\citation{monapi}
\citation{monagent}
\citation{monagent}
\@writefile{toc}{\contentsline {subsection}{\numberline {2.6.1}Monasca-API}{24}{subsection.2.6.1}}
\acronymused{API}
\acronymused{API}
\acronymused{REST}
\acronymused{API}
\acronymused{API}
\AC@undonewlabel{acro:URL}
\newlabel{acro:URL}{{2.6.1}{24}{Monasca-API}{section*.23}{}}
\acronymused{URL}
\acronymused{API}
\@writefile{toc}{\contentsline {subsection}{\numberline {2.6.2}Monasca-agent}{24}{subsection.2.6.2}}
\newlabel{sec:monasca-agent}{{2.6.2}{24}{Monasca-agent}{subsection.2.6.2}{}}
\acronymused{API}
\acronymused{CPU}
\@writefile{toc}{\contentsline {subsection}{\numberline {2.6.3}An\IeC {\'a}lisis de ventajas e inconvenientes de la soluci\IeC {\'o}n Monasca}{24}{subsection.2.6.3}}
\@writefile{lof}{\contentsline {figure}{\numberline {2.11}{\ignorespaces Arquitectura de Monasca \cite  {monwiki}}}{26}{figure.2.11}}
\newlabel{fig:monasca_achitecture}{{2.11}{26}{Arquitectura de Monasca \cite {monwiki}}{figure.2.11}{}}
\@writefile{lof}{\contentsline {figure}{\numberline {2.12}{\ignorespaces Agente de Monasca \cite  {monagent}}}{27}{figure.2.12}}
\newlabel{fig:monasca_agent}{{2.12}{27}{Agente de Monasca \cite {monagent}}{figure.2.12}{}}
\@writefile{toc}{\contentsline {chapter}{\numberline {3}Objetivos}{28}{chapter.3}}
\@writefile{lof}{\addvspace {10\p@ }}
\@writefile{lot}{\addvspace {10\p@ }}
\newlabel{chap:objetivos}{{3}{28}{Objetivos}{chapter.3}{}}
\@writefile{toc}{\contentsline {section}{\numberline {3.1}Objetivo general}{28}{section.3.1}}
\@writefile{toc}{\contentsline {section}{\numberline {3.2}Objetivos espec\IeC {\'\i }ficos}{28}{section.3.2}}
\@writefile{toc}{\contentsline {subsection}{\numberline {3.2.1}Objetivo 1}{28}{subsection.3.2.1}}
\newlabel{sec:automatizacion}{{3.2.1}{28}{Objetivo 1}{subsection.3.2.1}{}}
\acronymused{API}
\@writefile{toc}{\contentsline {subsection}{\numberline {3.2.2}Objetivo 2}{28}{subsection.3.2.2}}
\newlabel{sec:diversidad}{{3.2.2}{28}{Objetivo 2}{subsection.3.2.2}{}}
\@writefile{toc}{\contentsline {subsection}{\numberline {3.2.3}Objetivo 3}{28}{subsection.3.2.3}}
\@writefile{toc}{\contentsline {subsection}{\numberline {3.2.4}Objetivo 4}{29}{subsection.3.2.4}}
\acronymused{IaaS}
\citation{Som06:_i_sw}
\@writefile{toc}{\contentsline {chapter}{\numberline {4}Metodolog\IeC {\'\i }a de Trabajo y Herramientas}{30}{chapter.4}}
\@writefile{lof}{\addvspace {10\p@ }}
\@writefile{lot}{\addvspace {10\p@ }}
\newlabel{chap:metodologia}{{4}{30}{Metodología de Trabajo y Herramientas}{chapter.4}{}}
\@writefile{toc}{\contentsline {section}{\numberline {4.1}Metodolog\IeC {\'\i }a de Trabajo}{30}{section.4.1}}
\acronymused{IaaS}
\acronymused{IaaS}
\@writefile{toc}{\contentsline {subsection}{\numberline {4.1.1}Prototipado Incremental}{30}{subsection.4.1.1}}
\@writefile{lof}{\contentsline {figure}{\numberline {4.1}{\ignorespaces Prototipado Incremental}}{31}{figure.4.1}}
\newlabel{fig:prototipado_evolutivo}{{4.1}{31}{Prototipado Incremental}{figure.4.1}{}}
\@writefile{toc}{\contentsline {section}{\numberline {4.2}Recursos utilizados en el desarrollo del proyecto}{31}{section.4.2}}
\@writefile{toc}{\contentsline {subsection}{\numberline {4.2.1}Hardware}{31}{subsection.4.2.1}}
\@writefile{toc}{\contentsline {subsection}{\numberline {4.2.2}Lenguajes de programaci\IeC {\'o}n y scripting}{32}{subsection.4.2.2}}
\@writefile{toc}{\contentsline {subsection}{\numberline {4.2.3}Plataformas software}{32}{subsection.4.2.3}}
\@writefile{toc}{\contentsline {subsection}{\numberline {4.2.4}Sistemas operativos}{32}{subsection.4.2.4}}
\@writefile{toc}{\contentsline {subsection}{\numberline {4.2.5}Editores de texto}{32}{subsection.4.2.5}}
\@writefile{toc}{\contentsline {subsection}{\numberline {4.2.6}Documentaci\IeC {\'o}n}{32}{subsection.4.2.6}}
\@writefile{toc}{\contentsline {subsection}{\numberline {4.2.7}Otras Herramientas}{32}{subsection.4.2.7}}
\citation{vagrant}
\citation{devstackinstallation}
\citation{devstackinstallation}
\@writefile{toc}{\contentsline {chapter}{\numberline {5}Desarrollo}{33}{chapter.5}}
\@writefile{lof}{\addvspace {10\p@ }}
\@writefile{lot}{\addvspace {10\p@ }}
\newlabel{chap:desarrollo}{{5}{33}{Desarrollo}{chapter.5}{}}
\@writefile{toc}{\contentsline {section}{\numberline {5.1}Iteraci\IeC {\'o}n 0: Instalaci\IeC {\'o}n del entorno DevStack con Monasca}{33}{section.5.1}}
\newlabel{sec:it0}{{5.1}{33}{Iteración 0: Instalación del entorno DevStack con Monasca}{section.5.1}{}}
\citation{devstackconfig}
\@writefile{toc}{\contentsline {subsection}{\numberline {5.1.1}Descarga del repositorio DevStack}{34}{subsection.5.1.1}}
\@writefile{toc}{\contentsline {subsection}{\numberline {5.1.2}Configuraci\IeC {\'o}n del entorno}{34}{subsection.5.1.2}}
\acronymused{API}
\acronymused{API}
\@writefile{toc}{\contentsline {subsection}{\numberline {5.1.3}Arranque del entorno}{36}{subsection.5.1.3}}
\acronymused{URL}
\@writefile{toc}{\contentsline {subsection}{\numberline {5.1.4}Creaci\IeC {\'o}n de la Base de Datos de Monitorizaci\IeC {\'o}n}{36}{subsection.5.1.4}}
\citation{openstacksecurityrules}
\citation{cloudinit}
\acronymused{API}
\acronymused{URL}
\@writefile{lof}{\contentsline {figure}{\numberline {5.1}{\ignorespaces Interfaz de login de Open Stack}}{37}{figure.5.1}}
\newlabel{fig:login}{{5.1}{37}{Interfaz de login de Open Stack}{figure.5.1}{}}
\@writefile{toc}{\contentsline {subsection}{\numberline {5.1.5}Preparaci\IeC {\'o}n del acceso SSH a las instancias}{37}{subsection.5.1.5}}
\acronymused{RSA}
\acronymused{SSH}
\citation{openstacksecurityrules}
\citation{openstackimages}
\acronymused{SSH}
\acronymused{SSH}
\acronymused{SSH}
\acronymused{SSH}
\acronymused{TCP}
\acronymused{SSH}
\acronymused{CIDR}
\acronymused{IP}
\@writefile{toc}{\contentsline {subsection}{\numberline {5.1.6}Aprovisionamiento de im\IeC {\'a}genes}{38}{subsection.5.1.6}}
\acronymused{URL}
\acronymused{URL}
\citation{openstackimages}
\citation{cloudinit}
\acronymused{URL}
\@writefile{toc}{\contentsline {section}{\numberline {5.2}Iteraci\IeC {\'o}n 1: Creaci\IeC {\'o}n de un script gen\IeC {\'e}rico para instalaci\IeC {\'o}n y configuraci\IeC {\'o}n del agente de monitorizaci\IeC {\'o}n}{39}{section.5.2}}
\newlabel{sec:it1}{{5.2}{39}{Iteración 1: Creación de un script genérico para instalación y configuración del agente de monitorización}{section.5.2}{}}
\@writefile{toc}{\contentsline {subsection}{\numberline {5.2.1}Requisitos}{39}{subsection.5.2.1}}
\@writefile{toc}{\contentsline {subsection}{\numberline {5.2.2}An\IeC {\'a}lisis}{39}{subsection.5.2.2}}
\AC@undonewlabel{acro:LTS}
\newlabel{acro:LTS}{{5.2.2}{39}{Análisis}{section*.24}{}}
\acronymused{LTS}
\citation{monagent}
\AC@undonewlabel{acro:QCOW}
\newlabel{acro:QCOW}{{5.2.2}{40}{Análisis}{section*.25}{}}
\acronymused{QCOW}
\acronymused{QEMU}
\newlabel{code:instalacion_agente_generica}{{5.1}{40}{Instalación del Agente Monasca}{lstlisting.5.1}{}}
\@writefile{lol}{\contentsline {lstlisting}{\numberline {5.1}Instalaci\IeC {\'o}n del Agente Monasca}{40}{lstlisting.5.1}}
\newlabel{code:instalacion_agente}{{5.2}{40}{Instalación del Agente Monasca en Ubuntu 14.04}{lstlisting.5.2}{}}
\@writefile{lol}{\contentsline {lstlisting}{\numberline {5.2}Instalaci\IeC {\'o}n del Agente Monasca en Ubuntu 14.04}{40}{lstlisting.5.2}}
\newlabel{code:configuracion_agente}{{5.3}{41}{Configuración del Agente Monasca en Ubuntu 14.04}{lstlisting.5.3}{}}
\@writefile{lol}{\contentsline {lstlisting}{\numberline {5.3}Configuraci\IeC {\'o}n del Agente Monasca en Ubuntu 14.04}{41}{lstlisting.5.3}}
\acronymused{API}
\acronymused{URL}
\acronymused{URL}
\acronymused{API}
\@writefile{toc}{\contentsline {subsection}{\numberline {5.2.3}Desarrollo}{42}{subsection.5.2.3}}
\citation{bdd}
\@writefile{lof}{\contentsline {figure}{\numberline {5.2}{\ignorespaces Diagrama de flujo de la instalaci\IeC {\'o}n del Agente Monasca}}{43}{figure.5.2}}
\newlabel{fig:flujo_inicial}{{5.2}{43}{Diagrama de flujo de la instalación del Agente Monasca}{figure.5.2}{}}
\@writefile{toc}{\contentsline {subsection}{\numberline {5.2.4}Pruebas}{43}{subsection.5.2.4}}
\citation{openstackheat}
\citation{openstackheat}
\@writefile{toc}{\contentsline {section}{\numberline {5.3}Iteraci\IeC {\'o}n 2: Automatizaci\IeC {\'o}n de la instalaci\IeC {\'o}n del agente Monasca}{44}{section.5.3}}
\newlabel{sec:it2}{{5.3}{44}{Iteración 2: Automatización de la instalación del agente Monasca}{section.5.3}{}}
\@writefile{toc}{\contentsline {subsection}{\numberline {5.3.1}Requisitos}{44}{subsection.5.3.1}}
\@writefile{toc}{\contentsline {subsection}{\numberline {5.3.2}An\IeC {\'a}lisis}{44}{subsection.5.3.2}}
\acronymused{YAML}
\acronymused{YAML}
\acronymused{IP}
\acronymused{API}
\@writefile{lof}{\contentsline {figure}{\numberline {5.3}{\ignorespaces Heat dentro de la arquitectura de Open Stack}}{45}{figure.5.3}}
\newlabel{fig:heat}{{5.3}{45}{Heat dentro de la arquitectura de Open Stack}{figure.5.3}{}}
\acronymused{AWS}
\AC@undonewlabel{acro:CFN}
\newlabel{acro:CFN}{{5.3.2}{45}{Análisis}{section*.26}{}}
\acronymused{CFN}
\AC@undonewlabel{acro:HOT}
\newlabel{acro:HOT}{{5.3.2}{45}{Análisis}{section*.27}{}}
\acronymused{HOT}
\acronymused{HOT}
\acronymused{CPU}
\acronymused{CPU}
\acronymused{GB}
\acronymused{GB}
\acronymused{RAM}
\acronymused{SSH}
\acronymused{API}
\acronymused{IP}
\@writefile{toc}{\contentsline {subsection}{\numberline {5.3.3}Desarrollo}{46}{subsection.5.3.3}}
\acronymused{HOT}
\newlabel{code:registro_recurso_heat}{{5.4}{47}{Registro del recurso OS::Nova::Server::Monitored}{lstlisting.5.4}{}}
\@writefile{lol}{\contentsline {lstlisting}{\numberline {5.4}Registro del recurso OS::Nova::Server::Monitored}{47}{lstlisting.5.4}}
\acronymused{HOT}
\@writefile{toc}{\contentsline {subsection}{\numberline {5.3.4}Pruebas}{47}{subsection.5.3.4}}
\@writefile{lof}{\contentsline {figure}{\numberline {5.4}{\ignorespaces Recurso registrado en Heat}}{48}{figure.5.4}}
\newlabel{fig:stages}{{5.4}{48}{Recurso registrado en Heat}{figure.5.4}{}}
\acronymused{API}
\acronymused{API}
\@writefile{toc}{\contentsline {section}{\numberline {5.4}Iteraci\IeC {\'o}n 3: Notificaci\IeC {\'o}n de resultados en la interfaz de administraci\IeC {\'o}n}{48}{section.5.4}}
\newlabel{sec:it3}{{5.4}{48}{Iteración 3: Notificación de resultados en la interfaz de administración}{section.5.4}{}}
\acronymused{API}
\@writefile{toc}{\contentsline {subsection}{\numberline {5.4.1}Requisitos}{48}{subsection.5.4.1}}
\citation{openstackheatresources}
\@writefile{toc}{\contentsline {subsection}{\numberline {5.4.2}An\IeC {\'a}lisis}{49}{subsection.5.4.2}}
\@writefile{lof}{\contentsline {figure}{\numberline {5.5}{\ignorespaces Flujo de creaci\IeC {\'o}n de un recurso OS::Nova::Server::Monitored con notificaciones}}{50}{figure.5.5}}
\newlabel{fig:flujo_notif}{{5.5}{50}{Flujo de creación de un recurso OS::Nova::Server::Monitored con notificaciones}{figure.5.5}{}}
\@writefile{lof}{\contentsline {figure}{\numberline {5.6}{\ignorespaces Flujo de notificaciones entres los recursos WaitCondition y WaitConditionHandle}}{51}{figure.5.6}}
\newlabel{fig:flujo_componentes_senal}{{5.6}{51}{Flujo de notificaciones entres los recursos WaitCondition y WaitConditionHandle}{figure.5.6}{}}
\@writefile{toc}{\contentsline {subsection}{\numberline {5.4.3}Desarrollo}{51}{subsection.5.4.3}}
\newlabel{code:wait_condition_recursos}{{5.5}{52}{Recursos WaitCondition y WaitConditionHandle}{lstlisting.5.5}{}}
\@writefile{lol}{\contentsline {lstlisting}{\numberline {5.5}Recursos WaitCondition y WaitConditionHandle}{52}{lstlisting.5.5}}
\@writefile{toc}{\contentsline {subsection}{\numberline {5.4.4}Pruebas}{52}{subsection.5.4.4}}
\acronymused{HOT}
\@writefile{toc}{\contentsline {chapter}{\numberline {6}Resultados}{53}{chapter.6}}
\@writefile{lof}{\addvspace {10\p@ }}
\@writefile{lot}{\addvspace {10\p@ }}
\newlabel{chap:resultados}{{6}{53}{Resultados}{chapter.6}{}}
\@writefile{toc}{\contentsline {section}{\numberline {6.1}Aplicaci\IeC {\'o}n de la soluci\IeC {\'o}n}{53}{section.6.1}}
\acronymused{HOT}
\acronymused{API}
\acronymused{HOT}
\newlabel{code:resource_osnsm}{{6.1}{54}{Uso del recurso OS::Nova::Server::Monitored}{lstlisting.6.1}{}}
\@writefile{lol}{\contentsline {lstlisting}{\numberline {6.1}Uso del recurso OS::Nova::Server::Monitored}{54}{lstlisting.6.1}}
\newlabel{code:registrorecursoheat}{{6.2}{54}{Uso del recurso OS::Nova::Server::Monitored}{lstlisting.6.2}{}}
\@writefile{lol}{\contentsline {lstlisting}{\numberline {6.2}Uso del recurso OS::Nova::Server::Monitored}{54}{lstlisting.6.2}}
\@writefile{lof}{\contentsline {figure}{\numberline {6.1}{\ignorespaces Retroalimentaci\IeC {\'o}n de creaci\IeC {\'o}n de la pila}}{54}{figure.6.1}}
\newlabel{fig:heat_feedback}{{6.1}{54}{Retroalimentación de creación de la pila}{figure.6.1}{}}
\acronymused{API}
\@writefile{toc}{\contentsline {section}{\numberline {6.2}Estimaci\IeC {\'o}n de costes del proyecto}{55}{section.6.2}}
\@writefile{lot}{\contentsline {table}{\numberline {6.1}{\ignorespaces Distribuci\IeC {\'o}n de horas por tarea}}{55}{table.6.1}}
\newlabel{tab:distribucion_horas}{{6.1}{55}{Distribución de horas por tarea}{table.6.1}{}}
\@writefile{lot}{\contentsline {table}{\numberline {6.2}{\ignorespaces Estimaci\IeC {\'o}n de costes del proyecto}}{55}{table.6.2}}
\newlabel{tab:estimacion_costos}{{6.2}{55}{Estimación de costes del proyecto}{table.6.2}{}}
\@writefile{toc}{\contentsline {section}{\numberline {6.3}Repositorio}{56}{section.6.3}}
\newlabel{sec:repos}{{6.3}{56}{Repositorio}{section.6.3}{}}
\@writefile{toc}{\contentsline {chapter}{\numberline {7}Conclusiones y trabajo futuro}{57}{chapter.7}}
\@writefile{lof}{\addvspace {10\p@ }}
\@writefile{lot}{\addvspace {10\p@ }}
\newlabel{chap:conclusiones}{{7}{57}{Conclusiones y trabajo futuro}{chapter.7}{}}
\@writefile{toc}{\contentsline {section}{\numberline {7.1}Objetivos alcanzados}{57}{section.7.1}}
\@writefile{toc}{\contentsline {subsection}{\numberline {7.1.1}Objetivos directos}{57}{subsection.7.1.1}}
\acronymused{IaaS}
\@writefile{toc}{\contentsline {subsection}{\numberline {7.1.2}Objetivos indirectos}{57}{subsection.7.1.2}}
\acronymused{TIC}
\acronymused{IaaS}
\acronymused{IaaS}
\@writefile{toc}{\contentsline {section}{\numberline {7.2}Trabajo futuro}{58}{section.7.2}}
\@writefile{toc}{\contentsline {chapter}{\numberline {A}Casos de prueba}{60}{appendix.Alph1}}
\@writefile{lof}{\addvspace {10\p@ }}
\@writefile{lot}{\addvspace {10\p@ }}
\newlabel{chap:apendice1}{{A}{60}{Casos de prueba}{appendix.Alph1}{}}
\@writefile{toc}{\contentsline {section}{\numberline {A.1}Casos de prueba de la iteraci\IeC {\'o}n 1}{60}{section.Alph1.1}}
\newlabel{sec:casos_i1}{{A.1}{60}{Casos de prueba de la iteración 1}{section.Alph1.1}{}}
\@writefile{lot}{\contentsline {table}{\numberline {A.1}{\ignorespaces Casos de pruebas de la iteraci\IeC {\'o}n 1}}{60}{table.Alph1.1}}
\newlabel{tab:pruebai1}{{A.1}{60}{Casos de pruebas de la iteración 1}{table.Alph1.1}{}}
\@writefile{toc}{\contentsline {section}{\numberline {A.2}Casos de prueba de la iteraci\IeC {\'o}n 2}{61}{section.Alph1.2}}
\newlabel{sec:casos_i2}{{A.2}{61}{Casos de prueba de la iteración 2}{section.Alph1.2}{}}
\@writefile{lot}{\contentsline {table}{\numberline {A.2}{\ignorespaces Casos de pruebas de la iteraci\IeC {\'o}n 2}}{61}{table.Alph1.2}}
\newlabel{tab:pruebai2}{{A.2}{61}{Casos de pruebas de la iteración 2}{table.Alph1.2}{}}
\@writefile{toc}{\contentsline {section}{\numberline {A.3}Casos de prueba de la iteraci\IeC {\'o}n 3}{62}{section.Alph1.3}}
\newlabel{sec:casos_i3}{{A.3}{62}{Casos de prueba de la iteración 3}{section.Alph1.3}{}}
\@writefile{lot}{\contentsline {table}{\numberline {A.3}{\ignorespaces Casos de pruebas de la iteraci\IeC {\'o}n 3}}{62}{table.Alph1.3}}
\newlabel{tab:pruebai3}{{A.3}{62}{Casos de pruebas de la iteración 3}{table.Alph1.3}{}}
\@writefile{toc}{\contentsline {chapter}{\numberline {B}Plantillas de Heat}{63}{appendix.Alph2}}
\@writefile{lof}{\addvspace {10\p@ }}
\@writefile{lot}{\addvspace {10\p@ }}
\newlabel{chap:apendiceplantillas}{{B}{63}{Plantillas de Heat}{appendix.Alph2}{}}
\acronymused{HOT}
\@writefile{toc}{\contentsline {section}{\numberline {B.1}Plantilla de ejemplo del recurso OS::Nova::Server}{63}{section.Alph2.1}}
\newlabel{code:ejemplo_heat}{{B.1}{63}{Ejemplo de plantilla de orquestación Heat}{lstlisting.Alph2.1}{}}
\@writefile{lol}{\contentsline {lstlisting}{\numberline {B.1}Ejemplo de plantilla de orquestaci\IeC {\'o}n Heat}{63}{lstlisting.Alph2.1}}
\@writefile{toc}{\contentsline {section}{\numberline {B.2}Plantilla de prueba del recurso OS::Nova::Server::Monitored }{65}{section.Alph2.2}}
\newlabel{code:plantilla_osns_monitored}{{B.2}{65}{Plantilla del recurso OS::Nova::Server::Monitored}{lstlisting.Alph2.2}{}}
\@writefile{lol}{\contentsline {lstlisting}{\numberline {B.2}Plantilla del recurso OS::Nova::Server::Monitored}{65}{lstlisting.Alph2.2}}
\@writefile{toc}{\contentsline {chapter}{\numberline {C}Metricas obtenidas por el Agente Monasca}{66}{appendix.Alph3}}
\@writefile{lof}{\addvspace {10\p@ }}
\@writefile{lot}{\addvspace {10\p@ }}
\newlabel{chap:metricas_agente}{{C}{66}{Metricas obtenidas por el Agente Monasca}{appendix.Alph3}{}}
\@writefile{toc}{\contentsline {chapter}{\numberline {D}Creaci\IeC {\'o}n de una pila con Heat}{68}{appendix.Alph4}}
\@writefile{lof}{\addvspace {10\p@ }}
\@writefile{lot}{\addvspace {10\p@ }}
\newlabel{chap:heatcreate}{{D}{68}{Creación de una pila con Heat}{appendix.Alph4}{}}
\@writefile{lof}{\contentsline {figure}{\numberline {D.1}{\ignorespaces Interfaz para seleccionar plantilla de Heat}}{68}{figure.Alph4.1}}
\newlabel{fig:heat_seleccionar_plantilla}{{D.1}{68}{Interfaz para seleccionar plantilla de Heat}{figure.Alph4.1}{}}
\@writefile{lof}{\contentsline {figure}{\numberline {D.2}{\ignorespaces Interfaz de Heat para lanzar pila}}{69}{figure.Alph4.2}}
\newlabel{fig:heat_lanzar_pila}{{D.2}{69}{Interfaz de Heat para lanzar pila}{figure.Alph4.2}{}}
\@writefile{lof}{\contentsline {figure}{\numberline {D.3}{\ignorespaces Visor de sucesos de Heat}}{69}{figure.Alph4.3}}
\newlabel{fig:heat_sucesos}{{D.3}{69}{Visor de sucesos de Heat}{figure.Alph4.3}{}}
\@writefile{lof}{\contentsline {figure}{\numberline {D.4}{\ignorespaces Visor de topologias de Heat}}{69}{figure.Alph4.4}}
\newlabel{fig:heat_topologia}{{D.4}{69}{Visor de topologias de Heat}{figure.Alph4.4}{}}
\@writefile{toc}{\contentsline {chapter}{\numberline {E}Creaci\IeC {\'o}n de alertas con Monasca}{70}{appendix.Alph5}}
\@writefile{lof}{\addvspace {10\p@ }}
\@writefile{lot}{\addvspace {10\p@ }}
\newlabel{chap:alarm_creation}{{E}{70}{Creación de alertas con Monasca}{appendix.Alph5}{}}
\@writefile{lof}{\contentsline {figure}{\numberline {E.1}{\ignorespaces Creaci\IeC {\'o}n de una alerta, paso 1 (Detalles)}}{70}{figure.Alph5.1}}
\newlabel{fig:alarm_create_1}{{E.1}{70}{Creación de una alerta, paso 1 (Detalles)}{figure.Alph5.1}{}}
\@writefile{lof}{\contentsline {figure}{\numberline {E.2}{\ignorespaces Creaci\IeC {\'o}n de una alerta, paso 2}}{71}{figure.Alph5.2}}
\newlabel{fig:alarm_create_2}{{E.2}{71}{Creación de una alerta, paso 2}{figure.Alph5.2}{}}
\@writefile{lof}{\contentsline {figure}{\numberline {E.3}{\ignorespaces Selecci\IeC {\'o}n de m\IeC {\'e}trica}}{72}{figure.Alph5.3}}
\newlabel{fig:alarm_create_3}{{E.3}{72}{Selección de métrica}{figure.Alph5.3}{}}
\@writefile{lof}{\contentsline {figure}{\numberline {E.4}{\ignorespaces Selecci\IeC {\'o}n de host}}{72}{figure.Alph5.4}}
\newlabel{fig:alarm_create_4}{{E.4}{72}{Selección de host}{figure.Alph5.4}{}}
\@writefile{lof}{\contentsline {figure}{\numberline {E.5}{\ignorespaces Creaci\IeC {\'o}n de un m\IeC {\'e}todo de notificaci\IeC {\'o}n}}{72}{figure.Alph5.5}}
\newlabel{fig:notif_create_1}{{E.5}{72}{Creación de un método de notificación}{figure.Alph5.5}{}}
\acronymused{HTTP}
\acronymused{URL}
\@writefile{lof}{\contentsline {figure}{\numberline {E.6}{\ignorespaces Creaci\IeC {\'o}n de un m\IeC {\'e}todo de notificaci\IeC {\'o}n}}{73}{figure.Alph5.6}}
\newlabel{fig:notification}{{E.6}{73}{Creación de un método de notificación}{figure.Alph5.6}{}}
\citation{grafana}
\@writefile{toc}{\contentsline {chapter}{\numberline {F}Visualizaci\IeC {\'o}n de gr\IeC {\'a}ficas con Grafana}{74}{appendix.Alph6}}
\@writefile{lof}{\addvspace {10\p@ }}
\@writefile{lot}{\addvspace {10\p@ }}
\newlabel{chap:grafic_visualization}{{F}{74}{Visualización de gráficas con Grafana}{appendix.Alph6}{}}
\@writefile{lof}{\contentsline {figure}{\numberline {F.1}{\ignorespaces Acceso a Grafana desde Horizon}}{74}{figure.Alph6.1}}
\newlabel{fig:grafana_horizon}{{F.1}{74}{Acceso a Grafana desde Horizon}{figure.Alph6.1}{}}
\acronymused{URL}
\@writefile{lof}{\contentsline {figure}{\numberline {F.2}{\ignorespaces Interfaz de login de Grafana}}{75}{figure.Alph6.2}}
\newlabel{fig:grafana_login}{{F.2}{75}{Interfaz de login de Grafana}{figure.Alph6.2}{}}
\@writefile{lof}{\contentsline {figure}{\numberline {F.3}{\ignorespaces Configuraci\IeC {\'o}n de un datasource InfluxDB}}{75}{figure.Alph6.3}}
\newlabel{fig:grafana_datasource}{{F.3}{75}{Configuración de un datasource InfluxDB}{figure.Alph6.3}{}}
\@writefile{lof}{\contentsline {figure}{\numberline {F.4}{\ignorespaces Configuraci\IeC {\'o}n de un panel en Grafana}}{76}{figure.Alph6.4}}
\newlabel{fig:grafana_add_panel}{{F.4}{76}{Configuración de un panel en Grafana}{figure.Alph6.4}{}}
\@writefile{lof}{\contentsline {figure}{\numberline {F.5}{\ignorespaces Selecci\IeC {\'o}n del tipo de DataSource}}{76}{figure.Alph6.5}}
\newlabel{fig:grafana_panel_query_pre}{{F.5}{76}{Selección del tipo de DataSource}{figure.Alph6.5}{}}
\@writefile{lof}{\contentsline {figure}{\numberline {F.6}{\ignorespaces Configuraci\IeC {\'o}n de una query para un panel en Grafana}}{77}{figure.Alph6.6}}
\newlabel{fig:grafana_panel_query}{{F.6}{77}{Configuración de una query para un panel en Grafana}{figure.Alph6.6}{}}
\@writefile{lof}{\contentsline {figure}{\numberline {F.7}{\ignorespaces Selecci\IeC {\'o}n de m\IeC {\'e}trica para una query}}{77}{figure.Alph6.7}}
\newlabel{fig:grafana_metric_name}{{F.7}{77}{Selección de métrica para una query}{figure.Alph6.7}{}}
\@writefile{lof}{\contentsline {figure}{\numberline {F.8}{\ignorespaces Selecci\IeC {\'o}n de hostname para una query}}{77}{figure.Alph6.8}}
\newlabel{fig:grafana_host_name}{{F.8}{77}{Selección de hostname para una query}{figure.Alph6.8}{}}
\@writefile{lof}{\contentsline {figure}{\numberline {F.9}{\ignorespaces Selecci\IeC {\'o}n de rango de tiempo}}{78}{figure.Alph6.9}}
\newlabel{fig:grafana_time_range}{{F.9}{78}{Selección de rango de tiempo}{figure.Alph6.9}{}}
\@writefile{lof}{\contentsline {figure}{\numberline {F.10}{\ignorespaces Gr\IeC {\'a}fica de m\IeC {\'e}tricas de disco}}{78}{figure.Alph6.10}}
\newlabel{fig:grafica_metricas_disco}{{F.10}{78}{Gráfica de métricas de disco}{figure.Alph6.10}{}}
\@writefile{lof}{\contentsline {figure}{\numberline {F.11}{\ignorespaces Gr\IeC {\'a}fica de m\IeC {\'e}tricas de memoria}}{78}{figure.Alph6.11}}
\newlabel{fig:grafica_metricas_memoria}{{F.11}{78}{Gráfica de métricas de memoria}{figure.Alph6.11}{}}
\@writefile{lof}{\contentsline {figure}{\numberline {F.12}{\ignorespaces Gr\IeC {\'a}fica de m\IeC {\'e}tricas de \acs {CPU}}}{79}{figure.Alph6.12}}
\acronymused{CPU}
\newlabel{fig:grafica_metricas_cpu}{{F.12}{79}{Gráfica de métricas de \acs {CPU}}{figure.Alph6.12}{}}
\bibdata{main}
\bibcite{bdd}{bdd}
\bibcite{cloudinit}{cloa}
\bibcite{cloud9}{clob}
\bibcite{furht2010handbook}{FE10}
\bibcite{flapjack}{fla}
\bibcite{aceto2012}{GA12}
\bibcite{graphite}{graa}
\bibcite{grafana}{grab}
\bibcite{ha}{ha}
\bibcite{influxdb}{inf}
\bibcite{kafka}{kaf}
\bibcite{monwiki}{mona}
\bibcite{monapi}{monb}
\bibcite{monagent}{monc}
\bibcite{nagios}{Nag}
\bibcite{deployingopenstack}{Pep}
\@writefile{toc}{\contentsline {chapter}{Bibliograf\'{\i }a}{80}{appendix*.28}}
\bibcite{pushvspull}{pus}
\bibcite{rabbitmq}{rab}
\bibcite{santana2013data}{San13}
\bibcite{sensu}{sen}
\bibcite{Som06:_i_sw}{Som06}
\bibcite{cloudstackconcepts}{Staa}
\bibcite{cloudstack}{Stab}
\bibcite{devstackconfig}{Stac}
\bibcite{openstacksecurityrules}{Stad}
\bibcite{openstackimages}{Stae}
\bibcite{devstackinstallation}{Staf}
\bibcite{openstackheat}{Stag}
\bibcite{openstackheatresources}{Stah}
\bibcite{openstack}{Stai}
\bibcite{storm}{sto}
\bibcite{turnbull2014art}{Tur14}
\bibcite{ucc}{ucc}
\bibcite{vagrant}{vag}
\bibcite{vertica}{ver}
\bibcite{wcloud}{wcl}
\bibcite{jmcc}{Wik}
